{
    "windows" : {
        "package" : "http://otc-mesa-android.jf.intel.com/userContent/benchmarks/windows/GpuTest_Windows_x64_0.7.0.zip",
        "executable" : "GpuTest_Windows_x64_0.7.0/GpuTest.exe"
    },
    "linux" : {
        "package" : "http://otc-mesa-android.jf.intel.com/userContent/benchmarks/linux/GpuTest_Linux_x64_0.7.0.zip",
        "executable" : "GpuTest_Linux_x64_0.7.0/GpuTest"
    }
}
